{
	"response": [{
		"id": 72211,
		"first_name": "Екатерина",
		"last_name": "Касс",
		"sex": 1,
		"nickname": "",
		"maiden_name": "",
		"domain": "korke",
		"screen_name": "korke",
		"city": {
			"id": 1904029,
			"title": "Limassol"
		},
		"country": {
			"id": 95,
			"title": "Кипр"
		},
		"photo_max_orig": "https:\/\/pp.userapi.com\/c840231\/v840231211\/d804\/dWUI9TtXWgI.jpg?ava=1",
		"photo_id": "72211_456239715",
		"has_photo": 1,
		"has_mobile": 1,
		"is_friend": 0,
		"friend_status": 0,
		"online": 0,
		"can_post": 0,
		"can_see_all_posts": 0,
		"can_see_audio": 1,
		"can_write_private_message": 1,
		"can_send_friend_request": 1,
		"mobile_phone": "+79513695718",
		"home_phone": "",
		"skype": "ekaterinakasse",
		"facebook": "+1174753974",
		"facebook_name": "Ekaterina Kass",
		"twitter": "Ekaterina_Kass",
		"instagram": "ekaterinakasse",
		"site": "http:\/\/ekaterinakass.com\/",
		"status": "🎈🎈🎈After effect + Adobe xd + AI + Wacom Comic",
		"last_seen": {
			"time": 1538740974,
			"platform": 7
		},
		"verified": 0,
		"followers_count": 1599,
		"blacklisted": 0,
		"
		blacklisted_by_me": 0,
		"is_favorite": 0,
		"is_hidden_from_feed": 0,
		"common_count": 9,
		"occupation": {
			"type": "work",
			"id": 88150217,
			"name": "Ekaterina_Kass"
		},
		"career": [{
				"group_id": 88150217,
				"country_id": 1,
				"city_id": 99,
				"from": 2015,
				"position": "UX-Дизайнер"
			}
		],
		"military": [],
		"university": 670,
		"university_name": "НГТУ (НЭТИ)",
		"faculty": 1672,
		"faculty_name": "Факультет автоматики и вычислительной техники",
		"graduation": 0,
		"education_form": "Очное отделение",
		"education_status": "Выпускница (специалист)",
		"home_town": "Новосибирск",
		"relation": 0,
		"interests": "",
		"music": "",
		"activities": "",
		"movies": "Thank You for Smoking",
		"tv": "Discovery Science",
		"books": "",
		"games": "",
		"universities": [{
				"id": 670,
				"country": 95,
				"city": 1904029,
				"name": "НГТУ (НЭТИ)",
				"faculty": 1672,
				"faculty_name": "Факультет автоматики и вычислительной техники",
				"chair": 1476,
				"chair_name": "Вычислительной техники",
				"education_form": "Очное отделение",
				"education_status": "Выпускница
				(специалист)"
			}
		],
		"schools": [{
				"id": "1766246",
				"country": 1,
				"city": 1,
				"name": "Британская высшая школа дизайна",
				"year_from": 2008,
				"year_to": 2012,
				"class": "",
				"speciality": "Дизайн в интерактивной среде "
			}
		],
		"about": "",
		"relatives": [],
		"quotes": ""
	}]
}